time = 1598363037 (2020-08-25 15:43:57)
sig = 0
cycles = 20
integration = 1
airActive = 0
airChannel = 2
airP = 20.570000
airI = 0.880000
airD = 60.000000
airIntegral = 62.285257
hutActive = 0
hutChannel = 1
hutP = 5.000000
hutI = 0.007510
hutD = 0.000000
hutIntegral = 207.770827
valve = 0.000000
airReqTemp = 20.000000
hutReqTemp = 22.000000
histStatLow = 0.06
statTimespan0 = 120
statUpLimit0 = 2
statTimespan1 = 900
statUpLimit1 = 1
statTimespan2 = 3600
statUpLimit2 = 0.5
statTimespan3 = 21600
statUpLimit3 = 0.1

